{"count": 7630, "next": "https://api.masterleague.net/matches/?format=json&page=2", "previous": null, "results": [{"id": 7772, "date": "2018-11-03T23:00:00Z", "patch": 55, "tournament": 93, "stage": 375, "round": "Grand Final", "series": 2820, "series_format": "Bo5", "game": 3, "map": 9, "duration": 1037, "url": "https://masterleague.net/match/7772/", "drafts": [{"team": 20, "is_winner": false, "bans": [66, 38, 70], "picks": [{"hero": 34, "player": 438}, {"hero": 75, "player": 501}, {"hero": 24, "player": 105}, {"hero": 17, "player": 103}, {"hero": 53, "player": 102}]}, {"team": 214, "is_winner": true, "bans": [77, 8, 19], "picks": [{"hero": 79, "player": 211}, {"hero": 20, "player": 409}, {"hero": 80, "player": 213}, {"hero": 29, "player": 210}, {"hero": 33, "player": 408}]}]}, {"id": 7771, "date": "2018-11-03T23:00:00Z", "patch": 55, "tournament": 93, "stage": 375, "round": "Grand Final", "series": 2820, "series_format": "Bo5", "game": 2, "map": 2, "duration": 1053, "url": "https://masterleague.net/match/7771/", "drafts": [{"team": 20, "is_winner": false, "bans": [66, 7, 70], "picks": [{"hero": 34, "player": 438}, {"hero": 29, "player": 102}, {"hero": 76, "player": 105}, {"hero": 23, "player": 103}, {"hero": 54, "player": 501}]}, {"team": 214, "is_winner": true, "bans": [77, 51, 19], "picks": [{"hero": 79, "player": 211}, {"hero": 75, "player": 408}, {"hero": 40, "player": 213}, {"hero": 20, "player": 409}, {"hero": 56, "player": 210}]}]}, {"id": 7770, "date": "2018-11-03T23:00:00Z", "patch": 55, "tournament": 93, "stage": 375, "round": "Grand Final", "series": 2820, "series_format": "Bo5", "game": 1, "map": 6, "duration": 1058, "url": "https://masterleague.net/match/7770/", "drafts": [{"team": 20, "is_winner": false, "bans": [66, 56, 38], "picks": [{"hero": 80, "player": 105}, {"hero": 7, "player": 501}, {"hero": 70, "player": 103}, {"hero": 32, "player": 438}, {"hero": 51, "player": 102}]}, {"team": 214, "is_winner": true, "bans": [77, 6, 19], "picks": [{"hero": 34, "player": 211}, {"hero": 78, "player": 210}, {"hero": 68, "player": 213}, {"hero": 8, "player": 409}, {"hero": 75, "player": 408}]}]}, {"id": 7769, "date": "2018-11-03T19:45:00Z", "patch": 55, "tournament": 93, "stage": 375, "round": "1/2 Final", "series": 2819, "series_format": "Bo5", "game": 4, "map": 8, "duration": 789, "url": "https://masterleague.net/match/7769/", "drafts": [{"team": 215, "is_winner": false, "bans": [53, 38, 37], "picks": [{"hero": 66, "player": 196}, {"hero": 8, "player": 597}, {"hero": 50, "player": 222}, {"hero": 32, "player": 660}, {"hero": 7, "player": 400}]}, {"team": 20, "is_winner": true, "bans": [77, 72, 19], "picks": [{"hero": 34, "player": 438}, {"hero": 70, "player": 103}, {"hero": 75, "player": 501}, {"hero": 29, "player": 102}, {"hero": 76, "player": 105}]}]}, {"id": 7768, "date": "2018-11-03T19:45:00Z", "patch": 55, "tournament": 93, "stage": 375, "round": "1/2 Final", "series": 2819, "series_format": "Bo5", "game": 3, "map": 2, "duration": 1016, "url": "https://masterleague.net/match/7768/", "drafts": [{"team": 215, "is_winner": false, "bans": [24, 2, 53], "picks": [{"hero": 19, "player": 597}, {"hero": 79, "player": 660}, {"hero": 7, "player": 400}, {"hero": 40, "player": 222}, {"hero": 66, "player": 196}]}, {"team": 20, "is_winner": true, "bans": [77, 80, 70], "picks": [{"hero": 34, "player": 438}, {"hero": 29, "player": 501}, {"hero": 20, "player": 103}, {"hero": 76, "player": 105}, {"hero": 47, "player": 102}]}]}, {"id": 7767, "date": "2018-11-03T19:45:00Z", "patch": 55, "tournament": 93, "stage": 375, "round": "1/2 Final", "series": 2819, "series_format": "Bo5", "game": 2, "map": 14, "duration": 1016, "url": "https://masterleague.net/match/7767/", "drafts": [{"team": 20, "is_winner": true, "bans": [70, 7, 34], "picks": [{"hero": 66, "player": 102}, {"hero": 76, "player": 105}, {"hero": 2, "player": 103}, {"hero": 32, "player": 438}, {"hero": 51, "player": 501}]}, {"team": 215, "is_winner": false, "bans": [77, 38, 19], "picks": [{"hero": 29, "player": 400}, {"hero": 79, "player": 660}, {"hero": 20, "player": 597}, {"hero": 80, "player": 222}, {"hero": 6, "player": 196}]}]}, {"id": 7766, "date": "2018-11-03T19:45:00Z", "patch": 55, "tournament": 93, "stage": 375, "round": "1/2 Final", "series": 2819, "series_format": "Bo5", "game": 1, "map": 9, "duration": 1145, "url": "https://masterleague.net/match/7766/", "drafts": [{"team": 20, "is_winner": false, "bans": [70, 76, 66], "picks": [{"hero": 34, "player": 438}, {"hero": 24, "player": 102}, {"hero": 8, "player": 103}, {"hero": 40, "player": 105}, {"hero": 54, "player": 501}]}, {"team": 215, "is_winner": true, "bans": [77, 7, 19], "picks": [{"hero": 79, "player": 660}, {"hero": 75, "player": 400}, {"hero": 2, "player": 597}, {"hero": 80, "player": 196}, {"hero": 22, "player": 222}]}]}, {"id": 7765, "date": "2018-11-03T16:30:00Z", "patch": 55, "tournament": 93, "stage": 375, "round": "1/2 Final", "series": 2818, "series_format": "Bo5", "game": 5, "map": 11, "duration": 1280, "url": "https://masterleague.net/match/7765/", "drafts": [{"team": 214, "is_winner": true, "bans": [70, 51, 24], "picks": [{"hero": 8, "player": 409}, {"hero": 78, "player": 408}, {"hero": 68, "player": 213}, {"hero": 39, "player": 211}, {"hero": 56, "player": 210}]}, {"team": 19, "is_winner": false, "bans": [77, 38, 66], "picks": [{"hero": 20, "player": 244}, {"hero": 80, "player": 111}, {"hero": 73, "player": 125}, {"hero": 79, "player": 126}, {"hero": 50, "player": 545}]}]}, {"id": 7764, "date": "2018-11-03T16:30:00Z", "patch": 55, "tournament": 93, "stage": 375, "round": "1/2 Final", "series": 2818, "series_format": "Bo5", "game": 4, "map": 9, "duration": 1190, "url": "https://masterleague.net/match/7764/", "drafts": [{"team": 19, "is_winner": true, "bans": [38, 18, 19], "picks": [{"hero": 34, "player": 126}, {"hero": 24, "player": 545}, {"hero": 20, "player": 244}, {"hero": 80, "player": 111}, {"hero": 54, "player": 125}]}, {"team": 214, "is_winner": false, "bans": [77, 76, 66], "picks": [{"hero": 79, "player": 211}, {"hero": 75, "player": 408}, {"hero": 2, "player": 409}, {"hero": 68, "player": 210}, {"hero": 22, "player": 213}]}]}, {"id": 7763, "date": "2018-11-03T16:30:00Z", "patch": 55, "tournament": 93, "stage": 375, "round": "1/2 Final", "series": 2818, "series_format": "Bo5", "game": 3, "map": 6, "duration": 1010, "url": "https://masterleague.net/match/7763/", "drafts": [{"team": 19, "is_winner": false, "bans": [38, 19, 75], "picks": [{"hero": 34, "player": 126}, {"hero": 48, "player": 545}, {"hero": 8, "player": 244}, {"hero": 50, "player": 111}, {"hero": 29, "player": 125}]}, {"team": 214, "is_winner": true, "bans": [77, 54, 66], "picks": [{"hero": 80, "player": 213}, {"hero": 78, "player": 408}, {"hero": 39, "player": 211}, {"hero": 20, "player": 409}, {"hero": 56, "player": 210}]}]}]}