{"count": 1109, "next": "https://api.masterleague.net/players/?format=json&page=2", "previous": null, "results": [{"id": 341, "team": null, "region": 4, "nickname": "0303", "realname": "", "country": "CN", "role": 1, "url": "https://masterleague.net/player/341/", "photo": {"small": "https://c.masterleague.net/media/player/photo/default.png.32x32_q85.jpg", "big": "https://c.masterleague.net/media/player/photo/default.png.179x254_q85_crop_upscale.jpg", "medium": "https://c.masterleague.net/media/player/photo/default.png.110x155_q85_crop.jpg"}}, {"id": 395, "team": 148, "region": 4, "nickname": "365", "realname": "Haiyu Ling", "country": "CN", "role": 2, "url": "https://masterleague.net/player/395/", "photo": {"small": "https://c.masterleague.net/media/player/photo/1520281666.png.32x32_q85.png", "big": "https://c.masterleague.net/media/player/photo/1520281666.png.179x254_q85_crop_upscale.png", "medium": "https://c.masterleague.net/media/player/photo/1520281666.png.110x155_q85_crop.png"}}, {"id": 343, "team": null, "region": 4, "nickname": "511", "realname": "", "country": "CN", "role": 2, "url": "https://masterleague.net/player/343/", "photo": {"small": "https://c.masterleague.net/media/player/photo/default.png.32x32_q85.jpg", "big": "https://c.masterleague.net/media/player/photo/default.png.179x254_q85_crop_upscale.jpg", "medium": "https://c.masterleague.net/media/player/photo/default.png.110x155_q85_crop.jpg"}}, {"id": 514, "team": null, "region": 4, "nickname": "520", "realname": "He Jia", "country": "CN", "role": 4, "url": "https://masterleague.net/player/514/", "photo": {"small": "https://c.masterleague.net/media/player/photo/default.png.32x32_q85.jpg", "big": "https://c.masterleague.net/media/player/photo/default.png.179x254_q85_crop_upscale.jpg", "medium": "https://c.masterleague.net/media/player/photo/default.png.110x155_q85_crop.jpg"}}, {"id": 709, "team": 206, "region": 4, "nickname": "619", "realname": "Huajian Zhang", "country": "CN", "role": 1, "url": "https://masterleague.net/player/709/", "photo": {"small": "https://c.masterleague.net/media/player/photo/1530526344.png.32x32_q85.jpg", "big": "https://c.masterleague.net/media/player/photo/1530526344.png.179x254_q85_crop_upscale.jpg", "medium": "https://c.masterleague.net/media/player/photo/1530526344.png.110x155_q85_crop.jpg"}}, {"id": 991, "team": null, "region": 5, "nickname": "Achiu", "realname": "", "country": "TW", "role": 2, "url": "https://masterleague.net/player/991/", "photo": {"small": "https://c.masterleague.net/media/player/photo/default.png.32x32_q85.jpg", "big": "https://c.masterleague.net/media/player/photo/default.png.179x254_q85_crop_upscale.jpg", "medium": "https://c.masterleague.net/media/player/photo/default.png.110x155_q85_crop.jpg"}}, {"id": 1176, "team": null, "region": 8, "nickname": "Acubens", "realname": "", "country": "CL", "role": 4, "url": "https://masterleague.net/player/1176/", "photo": {"small": "https://c.masterleague.net/media/player/photo/default.png.32x32_q85.jpg", "big": "https://c.masterleague.net/media/player/photo/default.png.179x254_q85_crop_upscale.jpg", "medium": "https://c.masterleague.net/media/player/photo/default.png.110x155_q85_crop.jpg"}}, {"id": 240, "team": 223, "region": 1, "nickname": "adrd", "realname": "Adrian Wojcik", "country": "PL", "role": 4, "url": "https://masterleague.net/player/240/", "photo": {"small": "https://c.masterleague.net/media/player/photo/1516139344.jpg.32x32_q85.jpg", "big": "https://c.masterleague.net/media/player/photo/1516139344.jpg.179x254_q85_crop_upscale.jpg", "medium": "https://c.masterleague.net/media/player/photo/1516139344.jpg.110x155_q85_crop.jpg"}}, {"id": 793, "team": null, "region": 6, "nickname": "ADS", "realname": "", "country": "AU", "role": 3, "url": "https://masterleague.net/player/793/", "photo": {"small": "https://c.masterleague.net/media/player/photo/default.png.32x32_q85.jpg", "big": "https://c.masterleague.net/media/player/photo/default.png.179x254_q85_crop_upscale.jpg", "medium": "https://c.masterleague.net/media/player/photo/default.png.110x155_q85_crop.jpg"}}, {"id": 440, "team": null, "region": 1, "nickname": "aeRR", "realname": "", "country": "RU", "role": 3, "url": "https://masterleague.net/player/440/", "photo": {"small": "https://c.masterleague.net/media/player/photo/default.png.32x32_q85.jpg", "big": "https://c.masterleague.net/media/player/photo/default.png.179x254_q85_crop_upscale.jpg", "medium": "https://c.masterleague.net/media/player/photo/default.png.110x155_q85_crop.jpg"}}, {"id": 346, "team": null, "region": 4, "nickname": "Again", "realname": "Wang Wenqiang", "country": "CN", "role": 2, "url": "https://masterleague.net/player/346/", "photo": {"small": "https://c.masterleague.net/media/player/photo/default.png.32x32_q85.jpg", "big": "https://c.masterleague.net/media/player/photo/default.png.179x254_q85_crop_upscale.jpg", "medium": "https://c.masterleague.net/media/player/photo/default.png.110x155_q85_crop.jpg"}}, {"id": 468, "team": null, "region": 1, "nickname": "Agni", "realname": "Sergey Kuznetsov", "country": "UA", "role": 4, "url": "https://masterleague.net/player/468/", "photo": {"small": "https://c.masterleague.net/media/player/photo/default.png.32x32_q85.jpg", "big": "https://c.masterleague.net/media/player/photo/default.png.179x254_q85_crop_upscale.jpg", "medium": "https://c.masterleague.net/media/player/photo/default.png.110x155_q85_crop.jpg"}}, {"id": 575, "team": null, "region": 4, "nickname": "aGUA1", "realname": "Yi Wang", "country": "CN", "role": 1, "url": "https://masterleague.net/player/575/", "photo": {"small": "https://c.masterleague.net/media/player/photo/1492518913.jpg.32x32_q85.jpg", "big": "https://c.masterleague.net/media/player/photo/1492518913.jpg.179x254_q85_crop_upscale.jpg", "medium": "https://c.masterleague.net/media/player/photo/1492518913.jpg.110x155_q85_crop.jpg"}}, {"id": 741, "team": 217, "region": 3, "nickname": "Aimer", "realname": "Sang-jun Lee", "country": "KR", "role": 3, "url": "https://masterleague.net/player/741/", "photo": {"small": "https://c.masterleague.net/media/player/photo/1520281730.png.32x32_q85.png", "big": "https://c.masterleague.net/media/player/photo/1520281730.png.179x254_q85_crop_upscale.png", "medium": "https://c.masterleague.net/media/player/photo/1520281730.png.110x155_q85_crop.png"}}, {"id": 160, "team": 140, "region": 2, "nickname": "akaface", "realname": "Stefen Anderson", "country": "US", "role": 2, "url": "https://masterleague.net/player/160/", "photo": {"small": "https://c.masterleague.net/media/player/photo/1516137433.jpg.32x32_q85.jpg", "big": "https://c.masterleague.net/media/player/photo/1516137433.jpg.179x254_q85_crop_upscale.jpg", "medium": "https://c.masterleague.net/media/player/photo/1516137433.jpg.110x155_q85_crop.jpg"}}, {"id": 809, "team": null, "region": 1, "nickname": "Akari", "realname": "", "country": "AE", "role": 3, "url": "https://masterleague.net/player/809/", "photo": {"small": "https://c.masterleague.net/media/player/photo/default.png.32x32_q85.jpg", "big": "https://c.masterleague.net/media/player/photo/default.png.179x254_q85_crop_upscale.jpg", "medium": "https://c.masterleague.net/media/player/photo/default.png.110x155_q85_crop.jpg"}}, {"id": 1146, "team": 324, "region": 8, "nickname": "Alco07", "realname": "", "country": "PE", "role": 4, "url": "https://masterleague.net/player/1146/", "photo": {"small": "https://c.masterleague.net/media/player/photo/default.png.32x32_q85.jpg", "big": "https://c.masterleague.net/media/player/photo/default.png.179x254_q85_crop_upscale.jpg", "medium": "https://c.masterleague.net/media/player/photo/default.png.110x155_q85_crop.jpg"}}, {"id": 918, "team": 259, "region": 8, "nickname": "Aleksis007", "realname": "Aleksis Granda", "country": "PE", "role": 3, "url": "https://masterleague.net/player/918/", "photo": {"small": "https://c.masterleague.net/media/player/photo/default.png.32x32_q85.jpg", "big": "https://c.masterleague.net/media/player/photo/default.png.179x254_q85_crop_upscale.jpg", "medium": "https://c.masterleague.net/media/player/photo/default.png.110x155_q85_crop.jpg"}}, {"id": 843, "team": null, "region": 2, "nickname": "Alex", "realname": "", "country": "US", "role": 3, "url": "https://masterleague.net/player/843/", "photo": {"small": "https://c.masterleague.net/media/player/photo/default.png.32x32_q85.jpg", "big": "https://c.masterleague.net/media/player/photo/default.png.179x254_q85_crop_upscale.jpg", "medium": "https://c.masterleague.net/media/player/photo/default.png.110x155_q85_crop.jpg"}}, {"id": 956, "team": 270, "region": 3, "nickname": "Alex", "realname": "", "country": "KR", "role": 2, "url": "https://masterleague.net/player/956/", "photo": {"small": "https://c.masterleague.net/media/player/photo/default.png.32x32_q85.jpg", "big": "https://c.masterleague.net/media/player/photo/default.png.179x254_q85_crop_upscale.jpg", "medium": "https://c.masterleague.net/media/player/photo/default.png.110x155_q85_crop.jpg"}}]}