{"count": 318, "next": "https://api.masterleague.net/teams/?format=json&page=2", "previous": null, "results": [{"id": 40, "name": "1.4", "region": 3, "url": "https://masterleague.net/team/1-4/", "logo": {"small": "https://c.masterleague.net/media/team/logo/1458220619.png.80x80_q85.png", "big": "https://c.masterleague.net/media/team/logo/1458220619.png.300x300_q85.png", "medium": "https://c.masterleague.net/media/team/logo/1458220619.png.150x140_q85.png"}}, {"id": 73, "name": "2ARC Gaming", "region": 2, "url": "https://masterleague.net/team/2arc-gaming/", "logo": {"small": "https://c.masterleague.net/media/team/logo/1461144018.png.80x80_q85.png", "big": "https://c.masterleague.net/media/team/logo/1461144018.png.300x300_q85.png", "medium": "https://c.masterleague.net/media/team/logo/1461144018.png.150x140_q85.png"}}, {"id": 165, "name": "4k MMR Average", "region": 1, "url": "https://masterleague.net/team/tossers/", "logo": {"small": "https://c.masterleague.net/media/team/logo/default.png.80x80_q85.png", "big": "https://c.masterleague.net/media/team/logo/default.png.300x300_q85.png", "medium": "https://c.masterleague.net/media/team/logo/default.png.150x140_q85.png"}}, {"id": 255, "name": "6Sense", "region": 8, "url": "https://masterleague.net/team/6sense/", "logo": {"small": "https://c.masterleague.net/media/team/logo/1524032119.png.80x80_q85.png", "big": "https://c.masterleague.net/media/team/logo/1524032119.png.300x300_q85.png", "medium": "https://c.masterleague.net/media/team/logo/1524032119.png.150x140_q85.png"}}, {"id": 287, "name": "A-Team", "region": 4, "url": "https://masterleague.net/team/a-team/", "logo": {"small": "https://c.masterleague.net/media/team/logo/1530452514.png.80x80_q85.png", "big": "https://c.masterleague.net/media/team/logo/1530452514.png.300x300_q85.png", "medium": "https://c.masterleague.net/media/team/logo/1530452514.png.150x140_q85.png"}}, {"id": 327, "name": "About to Cry e-Sports", "region": 8, "url": "https://masterleague.net/team/about-cry-e-sports/", "logo": {"small": "https://c.masterleague.net/media/team/logo/1532775864.jpg.80x80_q85.jpg", "big": "https://c.masterleague.net/media/team/logo/1532775864.jpg.300x300_q85.jpg", "medium": "https://c.masterleague.net/media/team/logo/1532775864.jpg.150x140_q85.jpg"}}, {"id": 179, "name": "AE InSecure", "region": 1, "url": "https://masterleague.net/team/ae-insecure/", "logo": {"small": "https://c.masterleague.net/media/team/logo/default.png.80x80_q85.png", "big": "https://c.masterleague.net/media/team/logo/default.png.300x300_q85.png", "medium": "https://c.masterleague.net/media/team/logo/default.png.150x140_q85.png"}}, {"id": 204, "name": "Always Lucky", "region": 1, "url": "https://masterleague.net/team/always-lucky/", "logo": {"small": "https://c.masterleague.net/media/team/logo/default.png.80x80_q85.png", "big": "https://c.masterleague.net/media/team/logo/default.png.300x300_q85.png", "medium": "https://c.masterleague.net/media/team/logo/default.png.150x140_q85.png"}}, {"id": 201, "name": "Ardent Esports", "region": 1, "url": "https://masterleague.net/team/ardent-esports/", "logo": {"small": "https://c.masterleague.net/media/team/logo/default.png.80x80_q85.png", "big": "https://c.masterleague.net/media/team/logo/default.png.300x300_q85.png", "medium": "https://c.masterleague.net/media/team/logo/default.png.150x140_q85.png"}}, {"id": 237, "name": "Aria Pls", "region": 2, "url": "https://masterleague.net/team/ariapls/", "logo": {"small": "https://c.masterleague.net/media/team/logo/1521541085.jpg.80x80_q85.jpg", "big": "https://c.masterleague.net/media/team/logo/1521541085.jpg.300x300_q85.jpg", "medium": "https://c.masterleague.net/media/team/logo/1521541085.jpg.150x140_q85.jpg"}}, {"id": 332, "name": "Arrog\u00e2ncia", "region": 5, "url": "https://masterleague.net/team/arrogancia/", "logo": {"small": "https://c.masterleague.net/media/team/logo/1533305595.jpg.80x80_q85.jpg", "big": "https://c.masterleague.net/media/team/logo/1533305595.jpg.300x300_q85.jpg", "medium": "https://c.masterleague.net/media/team/logo/1533305595.jpg.150x140_q85.jpg"}}, {"id": 79, "name": "Astral Authority", "region": 2, "url": "https://masterleague.net/team/astral-authority/", "logo": {"small": "https://c.masterleague.net/media/team/logo/1462092032.png.80x80_q85.png", "big": "https://c.masterleague.net/media/team/logo/1462092032.png.300x300_q85.png", "medium": "https://c.masterleague.net/media/team/logo/1462092032.png.150x140_q85.png"}}, {"id": 230, "name": "Aztech Entertainment", "region": 6, "url": "https://masterleague.net/team/aztech-entertainment/", "logo": {"small": "https://c.masterleague.net/media/team/logo/1520366450.png.80x80_q85.jpg", "big": "https://c.masterleague.net/media/team/logo/1520366450.png.300x300_q85.jpg", "medium": "https://c.masterleague.net/media/team/logo/1520366450.png.150x140_q85.jpg"}}, {"id": 152, "name": "B-Step", "region": 2, "url": "https://masterleague.net/team/b-step/", "logo": {"small": "https://c.masterleague.net/media/team/logo/1484399223.png.80x80_q85.png", "big": "https://c.masterleague.net/media/team/logo/1484399223.png.300x300_q85.png", "medium": "https://c.masterleague.net/media/team/logo/1484399223.png.150x140_q85.png"}}, {"id": 321, "name": "Ball Breaker Reborn", "region": 8, "url": "https://masterleague.net/team/ball-breaker-reborn/", "logo": {"small": "https://c.masterleague.net/media/team/logo/1532776622.png.80x80_q85.jpg", "big": "https://c.masterleague.net/media/team/logo/1532776622.png.300x300_q85.jpg", "medium": "https://c.masterleague.net/media/team/logo/1532776622.png.150x140_q85.jpg"}}, {"id": 139, "name": "Ballistix", "region": 3, "url": "https://masterleague.net/team/ballistix/", "logo": {"small": "https://c.masterleague.net/media/team/logo/1476295646.png.80x80_q85.png", "big": "https://c.masterleague.net/media/team/logo/1476295646.png.300x300_q85.png", "medium": "https://c.masterleague.net/media/team/logo/1476295646.png.150x140_q85.png"}}, {"id": 333, "name": "BAOJA", "region": 5, "url": "https://masterleague.net/team/baoja/", "logo": {"small": "https://c.masterleague.net/media/team/logo/1533305600.jpg.80x80_q85.jpg", "big": "https://c.masterleague.net/media/team/logo/1533305600.jpg.300x300_q85.jpg", "medium": "https://c.masterleague.net/media/team/logo/1533305600.jpg.150x140_q85.jpg"}}, {"id": 76, "name": "BayWayStar", "region": 4, "url": "https://masterleague.net/team/baywaystar/", "logo": {"small": "https://c.masterleague.net/media/team/logo/1461317626.png.80x80_q85.png", "big": "https://c.masterleague.net/media/team/logo/1461317626.png.300x300_q85.png", "medium": "https://c.masterleague.net/media/team/logo/1461317626.png.150x140_q85.png"}}, {"id": 136, "name": "beGenius ESC", "region": 1, "url": "https://masterleague.net/team/begenius-esc/", "logo": {"small": "https://c.masterleague.net/media/team/logo/1484399102.png.80x80_q85.png", "big": "https://c.masterleague.net/media/team/logo/1484399102.png.300x300_q85.png", "medium": "https://c.masterleague.net/media/team/logo/1484399102.png.150x140_q85.png"}}, {"id": 304, "name": "Best Positioning", "region": 1, "url": "https://masterleague.net/team/best-positioning/", "logo": {"small": "https://c.masterleague.net/media/team/logo/default.png.80x80_q85.png", "big": "https://c.masterleague.net/media/team/logo/default.png.300x300_q85.png", "medium": "https://c.masterleague.net/media/team/logo/default.png.150x140_q85.png"}}]}