{"count": 82, "next": "https://api.masterleague.net/tournaments/?format=json&page=2", "previous": null, "results": [{"id": 93, "name": "2018 HGC Finals", "start_date": "2018-10-25", "end_date": "2018-11-03", "region": null, "url": "https://masterleague.net/tournament/93/", "stages": [{"id": 373, "name": "Group A"}, {"id": 374, "name": "Group B"}, {"id": 375, "name": "Playoffs"}]}, {"id": 83, "name": "2018 HGC North America - Phase 2", "start_date": "2018-06-25", "end_date": "2018-09-24", "region": 2, "url": "https://masterleague.net/tournament/83/", "stages": [{"id": 327, "name": "Standings"}, {"id": 324, "name": "Crucible"}, {"id": 321, "name": "Playoffs"}, {"id": 318, "name": "Group Stage 2"}, {"id": 312, "name": "Group Stage 1"}]}, {"id": 84, "name": "2018 HGC Korea - Phase 2", "start_date": "2018-06-25", "end_date": "2018-09-24", "region": 3, "url": "https://masterleague.net/tournament/84/", "stages": [{"id": 328, "name": "Standings"}, {"id": 325, "name": "Crucible"}, {"id": 322, "name": "Playoffs"}, {"id": 372, "name": "Open Division Finals"}, {"id": 319, "name": "Group Stage 2"}, {"id": 316, "name": "Group Stage 1"}]}, {"id": 85, "name": "2018 HGC Europe - Phase 2", "start_date": "2018-06-29", "end_date": "2018-09-24", "region": 1, "url": "https://masterleague.net/tournament/85/", "stages": [{"id": 326, "name": "Standings"}, {"id": 323, "name": "Crucible"}, {"id": 320, "name": "Playoffs"}, {"id": 317, "name": "Group Stage 2"}, {"id": 311, "name": "Group Stage 1"}]}, {"id": 82, "name": "2018 HGC China - Phase 2", "start_date": "2018-07-02", "end_date": "2018-09-22", "region": 4, "url": "https://masterleague.net/tournament/82/", "stages": [{"id": 368, "name": "Group Stage 2 Playoffs"}, {"id": 367, "name": "Group Stage 2"}, {"id": 330, "name": "Group Stage 1 Playoffs"}, {"id": 329, "name": "Group Stage 1"}]}, {"id": 92, "name": "2018 HGC Intercontinental Clash Phase 2", "start_date": "2018-09-15", "end_date": "2018-09-15", "region": null, "url": "https://masterleague.net/tournament/92/", "stages": [{"id": 371, "name": "Playoffs"}]}, {"id": 79, "name": "2018 HGC Europe Open Division - Phase 2", "start_date": "2018-07-02", "end_date": "2018-09-05", "region": 1, "url": "https://masterleague.net/tournament/79/", "stages": [{"id": 343, "name": "Standings"}, {"id": 345, "name": "Playoffs"}, {"id": 347, "name": "Cup #7"}, {"id": 341, "name": "Cup #6"}, {"id": 339, "name": "Cup #5"}, {"id": 337, "name": "Cup #4"}, {"id": 335, "name": "Cup #3"}, {"id": 333, "name": "Cup #2"}, {"id": 331, "name": "Cup #1"}]}, {"id": 80, "name": "2018 HGC North America Open Division - Phase 2", "start_date": "2018-07-02", "end_date": "2018-09-05", "region": 2, "url": "https://masterleague.net/tournament/80/", "stages": [{"id": 344, "name": "Standings"}, {"id": 346, "name": "Playoffs"}, {"id": 348, "name": "Cup #7"}, {"id": 342, "name": "Cup #6"}, {"id": 340, "name": "Cup #5"}, {"id": 338, "name": "Cup #4"}, {"id": 336, "name": "Cup #3"}, {"id": 334, "name": "Cup #2"}, {"id": 332, "name": "Cup #1"}]}, {"id": 91, "name": "2018 HGC Horizon Clash Phase 2", "start_date": "2018-09-01", "end_date": "2018-09-01", "region": null, "url": "https://masterleague.net/tournament/91/", "stages": [{"id": 370, "name": "Playoffs"}]}, {"id": 89, "name": "2018 HGC Taiwan - Phase 2", "start_date": "2018-07-26", "end_date": "2018-08-31", "region": 5, "url": "https://masterleague.net/tournament/89/", "stages": [{"id": 369, "name": "Playoffs"}, {"id": 364, "name": "Qualifier"}, {"id": 365, "name": "Group Stage"}]}, {"id": 90, "name": "2018 HGC South East Asia - Phase 2", "start_date": "2018-07-27", "end_date": "2018-08-31", "region": 7, "url": "https://masterleague.net/tournament/90/", "stages": [{"id": 362, "name": "Qualifier"}, {"id": 363, "name": "Round of 4"}]}, {"id": 87, "name": "2018 HGC Eastern Clash - Phase 2", "start_date": "2018-08-17", "end_date": "2018-08-20", "region": null, "url": "https://masterleague.net/tournament/87/", "stages": [{"id": 353, "name": "Playoffs"}]}, {"id": 81, "name": "2018 HGC ANZ Premier Division - Phase 2", "start_date": "2018-06-19", "end_date": "2018-08-16", "region": 6, "url": "https://masterleague.net/tournament/81/", "stages": [{"id": 349, "name": "Standings"}, {"id": 315, "name": "Group Stage 2"}, {"id": 314, "name": "Group Stage 1"}]}, {"id": 86, "name": "2018 HGC Western Clash - Phase 2", "start_date": "2018-08-10", "end_date": "2018-08-13", "region": null, "url": "https://masterleague.net/tournament/86/", "stages": [{"id": 354, "name": "Playoffs"}]}, {"id": 88, "name": "2018 HGC Copa Am\u00e9rica Phase 2", "start_date": "2018-07-31", "end_date": "2018-08-05", "region": 8, "url": "https://masterleague.net/tournament/88/", "stages": [{"id": 366, "name": "Sub Region Playoffs"}, {"id": 358, "name": "Group Stage North"}, {"id": 357, "name": "Group Stage South"}, {"id": 361, "name": "North Qualifier 2"}, {"id": 360, "name": "South Qualifier 2"}, {"id": 356, "name": "North Qualifier 1"}, {"id": 355, "name": "South Qualifier 1"}]}, {"id": 68, "name": "2018 HGC Mid-Season Brawl", "start_date": "2018-06-09", "end_date": "2018-06-19", "region": null, "url": "https://masterleague.net/tournament/68/", "stages": [{"id": 307, "name": "Group A"}, {"id": 308, "name": "Group B"}, {"id": 309, "name": "Playoffs"}]}, {"id": 67, "name": "2018 HGC Horizon Clash Phase 1", "start_date": "2018-05-18", "end_date": "2018-05-19", "region": null, "url": "https://masterleague.net/tournament/67/", "stages": [{"id": 310, "name": "Playoffs"}]}, {"id": 59, "name": "2018 HGC ANZ Premier Division - Phase 1", "start_date": "2018-02-27", "end_date": "2018-05-17", "region": 6, "url": "https://masterleague.net/tournament/59/", "stages": [{"id": 287, "name": "Standings"}, {"id": 259, "name": "Round 1"}, {"id": 285, "name": "Round 2"}, {"id": 306, "name": "Crucible"}]}, {"id": 66, "name": "2018 HGC Intercontinental Clash Phase 1", "start_date": "2018-05-13", "end_date": "2018-05-14", "region": null, "url": "https://masterleague.net/tournament/66/", "stages": [{"id": 302, "name": "Playoffs"}]}, {"id": 64, "name": "2018 HGC Taiwan - Phase 1", "start_date": "2018-04-11", "end_date": "2018-05-12", "region": 5, "url": "https://masterleague.net/tournament/64/", "stages": [{"id": 298, "name": "Qualifier"}, {"id": 301, "name": "Group Stage"}]}]}